[
   {

      "Cell0": {
         "hub": "FH4B000021",
         "rrh": [
            "RH6A000010",
            "RH6A000010",
            "RH6A000018",
            "RH6A000011",
            "RH6A000016",
            "RH6A000017"
         ],

         "sdr": [
            "RF3E000246",
            "RF3E000490",
            "RF3E000749",
            "RF3E000697",
            "RF3E000724",
            "RF3E000740",
            "RF3E000532",
            "RF3E000716",
            "RF3E000674",
            "RF3E000704",
            "RF3E000676",
            "RF3E000668",
            "RF3E000340",
            "RF3E000744",
            "RF3E000161",
            "RF3E000735",
            "RF3E000387",
            "RF3E000389",
            "RF3E000206",
            "RF3E000211",
            "RF3E000256",
            "RF3E000383",
            "RF3E000304",
            "RF3E000303"
         ]
      }
   }
]